{
  "project_info": {
    "project_number": "468363877209",
    "project_id": "newpetcare-2efb7",
    "storage_bucket": "newpetcare-2efb7.appspot.com"
  },
  "client": [
    {
      "client_info": {
        "mobilesdk_app_id": "1:468363877209:android:1d2ab1717dd288b159ca48",
        "android_client_info": {
          "package_name": "com.newpetcare"
        }
      },
      "oauth_client": [
        {
          "client_id": "468363877209-lg0tbvc7466v2c6sp4jtn6l33k47hnog.apps.googleusercontent.com",
          "client_type": 3
        }
      ],
      "api_key": [
        {
          "current_key": "AIzaSyDoySCcCTtDg-xC2Ivcpy_Ae80taCeOoEI"
        }
      ],
      "services": {
        "appinvite_service": {
          "other_platform_oauth_client": [
            {
              "client_id": "468363877209-lg0tbvc7466v2c6sp4jtn6l33k47hnog.apps.googleusercontent.com",
              "client_type": 3
            }
          ]
        }
      }
    }
  ],
  "configuration_version": "1"
}